Usehotkes
…
3

(1:10) %in% c(3,7,12)

##  [1] FALSE FALSE  TRUE FALSE FALSE FALSE  TRUE FALSE FALSE FALSE

11037c(3,7,12)37TUREFALSE

tibble(id = 1:1000,
       race = sample(c("","","","","",
                       "","","","",""),1000,replace = T),
       SystolicP = rnorm(1000,125,sd=10)) -> df
df

## # A tibble: 1,000 x 3
##       id race     SystolicP
##    <int> <chr>        <dbl>
##  1     1           127.
##  2     2           130.
##  3     3           112.
##  4     4       126.
##  5     5         108.
##  6     6           141.
##  7     7         121.
##  8     8           112.
##  9     9         115.
## 10    10         125.
## # ... with 990 more rows

1000

df %>% dplyr::filter(race %in% c("","",""))

## # A tibble: 301 x 3
##       id race   SystolicP
##    <int> <chr>      <dbl>
##  1     2         130.
##  2     8         112.
##  3     9       115.
##  4    10       125.
##  5    11       140.
##  6    14         113.
##  7    15       132.
##  8    21         117.
##  9    22       121.
## 10    24       131.
## # ... with 291 more rows
…
4

df %>% .[which(SystolicP>135),]

## Error in which(SystolicP > 135): 'SystolicP'

df SystolicP

df  %$%  .[which(SystolicP>135),]

## # A tibble: 146 x 3
##       id race   SystolicP
##    <int> <chr>      <dbl>
##  1     6         141.
##  2    11       140.
##  3    26         139.
##  4    44         139.
##  5    47       137.
##  6    55       144.
##  7    58       139.
##  8    62       137.
##  9    63         143.
## 10    67       140.
## # ... with 136 more rows
…
